INDEX VERSION 1.127+C:\Users\Rahul Desai\ouradbproject\.metadata\.plugins\org.eclipse.jdt.core
3095963708.index
2338776811.index
734900227.index
4004133052.index
3454125809.index
2486087126.index
1832949699.index
1065832147.index
1877021558.index
1947431546.index
110684607.index
1604200090.index
3991718231.index
1574318262.index
828133061.index
2193799835.index
2743915309.index
3598813974.index
834584462.index
1028199574.index
